module gitlab.com/easbarba/ruokin-go

go 1.23

require (
	github.com/julienschmidt/httprouter v1.3.0
	github.com/lib/pq v1.10.9
	github.com/stretchr/testify v1.8.4
)

require (
	github.com/davecgh/go-spew v1.1.1 // indirect
	github.com/pmezard/go-difflib v1.0.0 // indirect
	gopkg.in/yaml.v3 v3.0.1 // indirect
)
